wildlife values supervised classification model training
…
Computational engine: glmnet 

For the “tuneable” model we need to create a different tuning grid.

Code

reg_tune_grid <- grid_regular(
  max_tokens(range = c(500, 1300)),
  penalty(range = c(-4, 0)),
  levels = c(max_tokens = 5, penalty = 20)
)
reg_tune_grid

# A tibble: 100 × 2
   max_tokens  penalty
        <int>    <dbl>
 1        500 0.0001  
 2        700 0.0001  
 3        900 0.0001  
 4       1100 0.0001  
 5       1300 0.0001  
 6        500 0.000162
 7        700 0.000162
 8        900 0.000162
 9       1100 0.000162
10       1300 0.000162
# ℹ 90 more rows
…
K-Nearest Neighbors

Create tune grid for knn. Change max tokens and number of neighbors.

Code

knn_tune_grid <- grid_regular(
  max_tokens(range = c(500, 1300)),
  neighbors(range = c(2, 10)),
  levels = c(max_tokens = 5, neighbors = 9)
)
knn_tune_grid

# A tibble: 45 × 2
   max_tokens neighbors
        <int>     <int>
 1        500         2
 2        700         2
 3        900         2
 4       1100         2
 5       1300         2
 6        500         3
 7        700         3
 8        900         3
 9       1100         3
10       1300         3
# ℹ 35 more rows
…
