Classification Module
…
bigrams_filtered <- bigrams_separated %>%
  filter(!word1 %in% stop_words$word) %>%
  filter(!word2 %in% stop_words$word) %>%
  filter(!word1 %in% wildlife_stop_words$word) %>%
  filter(!word2 %in% wildlife_stop_words$word)

# new bigram counts:
bigram_counts <- bigrams_filtered %>% 
  count(word1, word2, sort = TRUE)

bigram_counts

# A tibble: 27,240 × 3
   word1      word2         n
   <chr>      <chr>     <int>
 1 endangered species     572
 2 wildlife   service     543
 3 species    act         383
 4 u.s        fish        344
 5 national   park        261
 6 north      cascades    202
 7 natural    resources   165
 8 management plan        155
 9 wildlife   officials   134
10 mexican    gray        129
# ℹ 27,230 more rows
…
